<?xml version="1.0" encoding="utf-8" standalone="no"?>
<!DOCTYPE svg PUBLIC "-//W3C//DTD SVG 1.1//EN"
  "http://www.w3.org/Graphics/SVG/1.1/DTD/svg11.dtd">
<!-- Created with matplotlib (http://matplotlib.org/) -->
<svg height="345pt" version="1.1" viewBox="0 0 460 345" width="460pt" xmlns="http://www.w3.org/2000/svg" xmlns:xlink="http://www.w3.org/1999/xlink">
 <defs>
  <style type="text/css">
*{stroke-linecap:butt;stroke-linejoin:round;}
  </style>
 </defs>
 <g id="figure_1">
  <g id="patch_1">
   <path d="M 0 345.6 
L 460.8 345.6 
L 460.8 0 
L 0 0 
z
" style="fill:#ffffff;"/>
  </g>
  <g id="axes_1">
   <g id="patch_2">
    <path d="M 44.48 290.68 
L 438.885 290.68 
L 438.885 13.32 
L 44.48 13.32 
z
" style="fill:#ffffff;"/>
   </g>
   <g id="matplotlib.axis_1">
    <g id="xtick_1">
     <g id="line2d_1">
      <defs>
       <path d="M 0 0 
L 0 3.5 
" id="m9f0ecfb93a" style="stroke:#000000;stroke-width:0.8;"/>
      </defs>
      <g>
       <use style="stroke:#000000;stroke-width:0.8;" x="44.48" xlink:href="#m9f0ecfb93a" y="290.68"/>
      </g>
     </g>
     <g id="text_1">
      <!-- −0.4 -->
      <defs>
       <path d="M 10.59375 35.5 
L 73.1875 35.5 
L 73.1875 27.203125 
L 10.59375 27.203125 
z
" id="DejaVuSans-2212"/>
       <path d="M 31.78125 66.40625 
Q 24.171875 66.40625 20.328125 58.90625 
Q 16.5 51.421875 16.5 36.375 
Q 16.5 21.390625 20.328125 13.890625 
Q 24.171875 6.390625 31.78125 6.390625 
Q 39.453125 6.390625 43.28125 13.890625 
Q 47.125 21.390625 47.125 36.375 
Q 47.125 51.421875 43.28125 58.90625 
Q 39.453125 66.40625 31.78125 66.40625 
z
M 31.78125 74.21875 
Q 44.046875 74.21875 50.515625 64.515625 
Q 56.984375 54.828125 56.984375 36.375 
Q 56.984375 17.96875 50.515625 8.265625 
Q 44.046875 -1.421875 31.78125 -1.421875 
Q 19.53125 -1.421875 13.0625 8.265625 
Q 6.59375 17.96875 6.59375 36.375 
Q 6.59375 54.828125 13.0625 64.515625 
Q 19.53125 74.21875 31.78125 74.21875 
z
" id="DejaVuSans-30"/>
       <path d="M 10.6875 12.40625 
L 21 12.40625 
L 21 0 
L 10.6875 0 
z
" id="DejaVuSans-2e"/>
       <path d="M 37.796875 64.3125 
L 12.890625 25.390625 
L 37.796875 25.390625 
z
M 35.203125 72.90625 
L 47.609375 72.90625 
L 47.609375 25.390625 
L 58.015625 25.390625 
L 58.015625 17.1875 
L 47.609375 17.1875 
L 47.609375 0 
L 37.796875 0 
L 37.796875 17.1875 
L 4.890625 17.1875 
L 4.890625 26.703125 
z
" id="DejaVuSans-34"/>
      </defs>
      <g transform="translate(27.482031 308.317812)scale(0.14 -0.14)">
       <use xlink:href="#DejaVuSans-2212"/>
       <use x="83.789062" xlink:href="#DejaVuSans-30"/>
       <use x="147.412109" xlink:href="#DejaVuSans-2e"/>
       <use x="179.199219" xlink:href="#DejaVuSans-34"/>
      </g>
     </g>
    </g>
    <g id="xtick_2">
     <g id="line2d_2">
      <g>
       <use style="stroke:#000000;stroke-width:0.8;" x="93.780625" xlink:href="#m9f0ecfb93a" y="290.68"/>
      </g>
     </g>
     <g id="text_2">
      <!-- −0.3 -->
      <defs>
       <path d="M 40.578125 39.3125 
Q 47.65625 37.796875 51.625 33 
Q 55.609375 28.21875 55.609375 21.1875 
Q 55.609375 10.40625 48.1875 4.484375 
Q 40.765625 -1.421875 27.09375 -1.421875 
Q 22.515625 -1.421875 17.65625 -0.515625 
Q 12.796875 0.390625 7.625 2.203125 
L 7.625 11.71875 
Q 11.71875 9.328125 16.59375 8.109375 
Q 21.484375 6.890625 26.8125 6.890625 
Q 36.078125 6.890625 40.9375 10.546875 
Q 45.796875 14.203125 45.796875 21.1875 
Q 45.796875 27.640625 41.28125 31.265625 
Q 36.765625 34.90625 28.71875 34.90625 
L 20.21875 34.90625 
L 20.21875 43.015625 
L 29.109375 43.015625 
Q 36.375 43.015625 40.234375 45.921875 
Q 44.09375 48.828125 44.09375 54.296875 
Q 44.09375 59.90625 40.109375 62.90625 
Q 36.140625 65.921875 28.71875 65.921875 
Q 24.65625 65.921875 20.015625 65.03125 
Q 15.375 64.15625 9.8125 62.3125 
L 9.8125 71.09375 
Q 15.4375 72.65625 20.34375 73.4375 
Q 25.25 74.21875 29.59375 74.21875 
Q 40.828125 74.21875 47.359375 69.109375 
Q 53.90625 64.015625 53.90625 55.328125 
Q 53.90625 49.265625 50.4375 45.09375 
Q 46.96875 40.921875 40.578125 39.3125 
z
" id="DejaVuSans-33"/>
      </defs>
      <g transform="translate(76.782656 308.317812)scale(0.14 -0.14)">
       <use xlink:href="#DejaVuSans-2212"/>
       <use x="83.789062" xlink:href="#DejaVuSans-30"/>
       <use x="147.412109" xlink:href="#DejaVuSans-2e"/>
       <use x="179.199219" xlink:href="#DejaVuSans-33"/>
      </g>
     </g>
    </g>
    <g id="xtick_3">
     <g id="line2d_3">
      <g>
       <use style="stroke:#000000;stroke-width:0.8;" x="143.08125" xlink:href="#m9f0ecfb93a" y="290.68"/>
      </g>
     </g>
     <g id="text_3">
      <!-- −0.2 -->
      <defs>
       <path d="M 19.1875 8.296875 
L 53.609375 8.296875 
L 53.609375 0 
L 7.328125 0 
L 7.328125 8.296875 
Q 12.9375 14.109375 22.625 23.890625 
Q 32.328125 33.6875 34.8125 36.53125 
Q 39.546875 41.84375 41.421875 45.53125 
Q 43.3125 49.21875 43.3125 52.78125 
Q 43.3125 58.59375 39.234375 62.25 
Q 35.15625 65.921875 28.609375 65.921875 
Q 23.96875 65.921875 18.8125 64.3125 
Q 13.671875 62.703125 7.8125 59.421875 
L 7.8125 69.390625 
Q 13.765625 71.78125 18.9375 73 
Q 24.125 74.21875 28.421875 74.21875 
Q 39.75 74.21875 46.484375 68.546875 
Q 53.21875 62.890625 53.21875 53.421875 
Q 53.21875 48.921875 51.53125 44.890625 
Q 49.859375 40.875 45.40625 35.40625 
Q 44.1875 33.984375 37.640625 27.21875 
Q 31.109375 20.453125 19.1875 8.296875 
z
" id="DejaVuSans-32"/>
      </defs>
      <g transform="translate(126.083281 308.317812)scale(0.14 -0.14)">
       <use xlink:href="#DejaVuSans-2212"/>
       <use x="83.789062" xlink:href="#DejaVuSans-30"/>
       <use x="147.412109" xlink:href="#DejaVuSans-2e"/>
       <use x="179.199219" xlink:href="#DejaVuSans-32"/>
      </g>
     </g>
    </g>
    <g id="xtick_4">
     <g id="line2d_4">
      <g>
       <use style="stroke:#000000;stroke-width:0.8;" x="192.381875" xlink:href="#m9f0ecfb93a" y="290.68"/>
      </g>
     </g>
     <g id="text_4">
      <!-- −0.1 -->
      <defs>
       <path d="M 12.40625 8.296875 
L 28.515625 8.296875 
L 28.515625 63.921875 
L 10.984375 60.40625 
L 10.984375 69.390625 
L 28.421875 72.90625 
L 38.28125 72.90625 
L 38.28125 8.296875 
L 54.390625 8.296875 
L 54.390625 0 
L 12.40625 0 
z
" id="DejaVuSans-31"/>
      </defs>
      <g transform="translate(175.383906 308.317812)scale(0.14 -0.14)">
       <use xlink:href="#DejaVuSans-2212"/>
       <use x="83.789062" xlink:href="#DejaVuSans-30"/>
       <use x="147.412109" xlink:href="#DejaVuSans-2e"/>
       <use x="179.199219" xlink:href="#DejaVuSans-31"/>
      </g>
     </g>
    </g>
    <g id="xtick_5">
     <g id="line2d_5">
      <g>
       <use style="stroke:#000000;stroke-width:0.8;" x="241.6825" xlink:href="#m9f0ecfb93a" y="290.68"/>
      </g>
     </g>
     <g id="text_5">
      <!-- 0.0 -->
      <g transform="translate(230.550313 308.317812)scale(0.14 -0.14)">
       <use xlink:href="#DejaVuSans-30"/>
       <use x="63.623047" xlink:href="#DejaVuSans-2e"/>
       <use x="95.410156" xlink:href="#DejaVuSans-30"/>
      </g>
     </g>
    </g>
    <g id="xtick_6">
     <g id="line2d_6">
      <g>
       <use style="stroke:#000000;stroke-width:0.8;" x="290.983125" xlink:href="#m9f0ecfb93a" y="290.68"/>
      </g>
     </g>
     <g id="text_6">
      <!-- 0.1 -->
      <g transform="translate(279.850937 308.317812)scale(0.14 -0.14)">
       <use xlink:href="#DejaVuSans-30"/>
       <use x="63.623047" xlink:href="#DejaVuSans-2e"/>
       <use x="95.410156" xlink:href="#DejaVuSans-31"/>
      </g>
     </g>
    </g>
    <g id="xtick_7">
     <g id="line2d_7">
      <g>
       <use style="stroke:#000000;stroke-width:0.8;" x="340.28375" xlink:href="#m9f0ecfb93a" y="290.68"/>
      </g>
     </g>
     <g id="text_7">
      <!-- 0.2 -->
      <g transform="translate(329.151563 308.317812)scale(0.14 -0.14)">
       <use xlink:href="#DejaVuSans-30"/>
       <use x="63.623047" xlink:href="#DejaVuSans-2e"/>
       <use x="95.410156" xlink:href="#DejaVuSans-32"/>
      </g>
     </g>
    </g>
    <g id="xtick_8">
     <g id="line2d_8">
      <g>
       <use style="stroke:#000000;stroke-width:0.8;" x="389.584375" xlink:href="#m9f0ecfb93a" y="290.68"/>
      </g>
     </g>
     <g id="text_8">
      <!-- 0.3 -->
      <g transform="translate(378.452188 308.317812)scale(0.14 -0.14)">
       <use xlink:href="#DejaVuSans-30"/>
       <use x="63.623047" xlink:href="#DejaVuSans-2e"/>
       <use x="95.410156" xlink:href="#DejaVuSans-33"/>
      </g>
     </g>
    </g>
    <g id="xtick_9">
     <g id="line2d_9">
      <g>
       <use style="stroke:#000000;stroke-width:0.8;" x="438.885" xlink:href="#m9f0ecfb93a" y="290.68"/>
      </g>
     </g>
     <g id="text_9">
      <!-- 0.4 -->
      <g transform="translate(427.752813 308.317812)scale(0.14 -0.14)">
       <use xlink:href="#DejaVuSans-30"/>
       <use x="63.623047" xlink:href="#DejaVuSans-2e"/>
       <use x="95.410156" xlink:href="#DejaVuSans-34"/>
      </g>
     </g>
    </g>
    <g id="text_10">
     <!-- Surface layer shift ($\mathrm{\AA}$) -->
     <defs>
      <path d="M 53.515625 70.515625 
L 53.515625 60.890625 
Q 47.90625 63.578125 42.921875 64.890625 
Q 37.9375 66.21875 33.296875 66.21875 
Q 25.25 66.21875 20.875 63.09375 
Q 16.5 59.96875 16.5 54.203125 
Q 16.5 49.359375 19.40625 46.890625 
Q 22.3125 44.4375 30.421875 42.921875 
L 36.375 41.703125 
Q 47.40625 39.59375 52.65625 34.296875 
Q 57.90625 29 57.90625 20.125 
Q 57.90625 9.515625 50.796875 4.046875 
Q 43.703125 -1.421875 29.984375 -1.421875 
Q 24.8125 -1.421875 18.96875 -0.25 
Q 13.140625 0.921875 6.890625 3.21875 
L 6.890625 13.375 
Q 12.890625 10.015625 18.65625 8.296875 
Q 24.421875 6.59375 29.984375 6.59375 
Q 38.421875 6.59375 43.015625 9.90625 
Q 47.609375 13.234375 47.609375 19.390625 
Q 47.609375 24.75 44.3125 27.78125 
Q 41.015625 30.8125 33.5 32.328125 
L 27.484375 33.5 
Q 16.453125 35.6875 11.515625 40.375 
Q 6.59375 45.0625 6.59375 53.421875 
Q 6.59375 63.09375 13.40625 68.65625 
Q 20.21875 74.21875 32.171875 74.21875 
Q 37.3125 74.21875 42.625 73.28125 
Q 47.953125 72.359375 53.515625 70.515625 
z
" id="DejaVuSans-53"/>
      <path d="M 8.5 21.578125 
L 8.5 54.6875 
L 17.484375 54.6875 
L 17.484375 21.921875 
Q 17.484375 14.15625 20.5 10.265625 
Q 23.53125 6.390625 29.59375 6.390625 
Q 36.859375 6.390625 41.078125 11.03125 
Q 45.3125 15.671875 45.3125 23.6875 
L 45.3125 54.6875 
L 54.296875 54.6875 
L 54.296875 0 
L 45.3125 0 
L 45.3125 8.40625 
Q 42.046875 3.421875 37.71875 1 
Q 33.40625 -1.421875 27.6875 -1.421875 
Q 18.265625 -1.421875 13.375 4.4375 
Q 8.5 10.296875 8.5 21.578125 
z
M 31.109375 56 
z
" id="DejaVuSans-75"/>
      <path d="M 41.109375 46.296875 
Q 39.59375 47.171875 37.8125 47.578125 
Q 36.03125 48 33.890625 48 
Q 26.265625 48 22.1875 43.046875 
Q 18.109375 38.09375 18.109375 28.8125 
L 18.109375 0 
L 9.078125 0 
L 9.078125 54.6875 
L 18.109375 54.6875 
L 18.109375 46.1875 
Q 20.953125 51.171875 25.484375 53.578125 
Q 30.03125 56 36.53125 56 
Q 37.453125 56 38.578125 55.875 
Q 39.703125 55.765625 41.0625 55.515625 
z
" id="DejaVuSans-72"/>
      <path d="M 37.109375 75.984375 
L 37.109375 68.5 
L 28.515625 68.5 
Q 23.6875 68.5 21.796875 66.546875 
Q 19.921875 64.59375 19.921875 59.515625 
L 19.921875 54.6875 
L 34.71875 54.6875 
L 34.71875 47.703125 
L 19.921875 47.703125 
L 19.921875 0 
L 10.890625 0 
L 10.890625 47.703125 
L 2.296875 47.703125 
L 2.296875 54.6875 
L 10.890625 54.6875 
L 10.890625 58.5 
Q 10.890625 67.625 15.140625 71.796875 
Q 19.390625 75.984375 28.609375 75.984375 
z
" id="DejaVuSans-66"/>
      <path d="M 34.28125 27.484375 
Q 23.390625 27.484375 19.1875 25 
Q 14.984375 22.515625 14.984375 16.5 
Q 14.984375 11.71875 18.140625 8.90625 
Q 21.296875 6.109375 26.703125 6.109375 
Q 34.1875 6.109375 38.703125 11.40625 
Q 43.21875 16.703125 43.21875 25.484375 
L 43.21875 27.484375 
z
M 52.203125 31.203125 
L 52.203125 0 
L 43.21875 0 
L 43.21875 8.296875 
Q 40.140625 3.328125 35.546875 0.953125 
Q 30.953125 -1.421875 24.3125 -1.421875 
Q 15.921875 -1.421875 10.953125 3.296875 
Q 6 8.015625 6 15.921875 
Q 6 25.140625 12.171875 29.828125 
Q 18.359375 34.515625 30.609375 34.515625 
L 43.21875 34.515625 
L 43.21875 35.40625 
Q 43.21875 41.609375 39.140625 45 
Q 35.0625 48.390625 27.6875 48.390625 
Q 23 48.390625 18.546875 47.265625 
Q 14.109375 46.140625 10.015625 43.890625 
L 10.015625 52.203125 
Q 14.9375 54.109375 19.578125 55.046875 
Q 24.21875 56 28.609375 56 
Q 40.484375 56 46.34375 49.84375 
Q 52.203125 43.703125 52.203125 31.203125 
z
" id="DejaVuSans-61"/>
      <path d="M 48.78125 52.59375 
L 48.78125 44.1875 
Q 44.96875 46.296875 41.140625 47.34375 
Q 37.3125 48.390625 33.40625 48.390625 
Q 24.65625 48.390625 19.8125 42.84375 
Q 14.984375 37.3125 14.984375 27.296875 
Q 14.984375 17.28125 19.8125 11.734375 
Q 24.65625 6.203125 33.40625 6.203125 
Q 37.3125 6.203125 41.140625 7.25 
Q 44.96875 8.296875 48.78125 10.40625 
L 48.78125 2.09375 
Q 45.015625 0.34375 40.984375 -0.53125 
Q 36.96875 -1.421875 32.421875 -1.421875 
Q 20.0625 -1.421875 12.78125 6.34375 
Q 5.515625 14.109375 5.515625 27.296875 
Q 5.515625 40.671875 12.859375 48.328125 
Q 20.21875 56 33.015625 56 
Q 37.15625 56 41.109375 55.140625 
Q 45.0625 54.296875 48.78125 52.59375 
z
" id="DejaVuSans-63"/>
      <path d="M 56.203125 29.59375 
L 56.203125 25.203125 
L 14.890625 25.203125 
Q 15.484375 15.921875 20.484375 11.0625 
Q 25.484375 6.203125 34.421875 6.203125 
Q 39.59375 6.203125 44.453125 7.46875 
Q 49.3125 8.734375 54.109375 11.28125 
L 54.109375 2.78125 
Q 49.265625 0.734375 44.1875 -0.34375 
Q 39.109375 -1.421875 33.890625 -1.421875 
Q 20.796875 -1.421875 13.15625 6.1875 
Q 5.515625 13.8125 5.515625 26.8125 
Q 5.515625 40.234375 12.765625 48.109375 
Q 20.015625 56 32.328125 56 
Q 43.359375 56 49.78125 48.890625 
Q 56.203125 41.796875 56.203125 29.59375 
z
M 47.21875 32.234375 
Q 47.125 39.59375 43.09375 43.984375 
Q 39.0625 48.390625 32.421875 48.390625 
Q 24.90625 48.390625 20.390625 44.140625 
Q 15.875 39.890625 15.1875 32.171875 
z
" id="DejaVuSans-65"/>
      <path id="DejaVuSans-20"/>
      <path d="M 9.421875 75.984375 
L 18.40625 75.984375 
L 18.40625 0 
L 9.421875 0 
z
" id="DejaVuSans-6c"/>
      <path d="M 32.171875 -5.078125 
Q 28.375 -14.84375 24.75 -17.8125 
Q 21.140625 -20.796875 15.09375 -20.796875 
L 7.90625 -20.796875 
L 7.90625 -13.28125 
L 13.1875 -13.28125 
Q 16.890625 -13.28125 18.9375 -11.515625 
Q 21 -9.765625 23.484375 -3.21875 
L 25.09375 0.875 
L 2.984375 54.6875 
L 12.5 54.6875 
L 29.59375 11.921875 
L 46.6875 54.6875 
L 56.203125 54.6875 
z
" id="DejaVuSans-79"/>
      <path d="M 44.28125 53.078125 
L 44.28125 44.578125 
Q 40.484375 46.53125 36.375 47.5 
Q 32.28125 48.484375 27.875 48.484375 
Q 21.1875 48.484375 17.84375 46.4375 
Q 14.5 44.390625 14.5 40.28125 
Q 14.5 37.15625 16.890625 35.375 
Q 19.28125 33.59375 26.515625 31.984375 
L 29.59375 31.296875 
Q 39.15625 29.25 43.1875 25.515625 
Q 47.21875 21.78125 47.21875 15.09375 
Q 47.21875 7.46875 41.1875 3.015625 
Q 35.15625 -1.421875 24.609375 -1.421875 
Q 20.21875 -1.421875 15.453125 -0.5625 
Q 10.6875 0.296875 5.421875 2 
L 5.421875 11.28125 
Q 10.40625 8.6875 15.234375 7.390625 
Q 20.0625 6.109375 24.8125 6.109375 
Q 31.15625 6.109375 34.5625 8.28125 
Q 37.984375 10.453125 37.984375 14.40625 
Q 37.984375 18.0625 35.515625 20.015625 
Q 33.0625 21.96875 24.703125 23.78125 
L 21.578125 24.515625 
Q 13.234375 26.265625 9.515625 29.90625 
Q 5.8125 33.546875 5.8125 39.890625 
Q 5.8125 47.609375 11.28125 51.796875 
Q 16.75 56 26.8125 56 
Q 31.78125 56 36.171875 55.265625 
Q 40.578125 54.546875 44.28125 53.078125 
z
" id="DejaVuSans-73"/>
      <path d="M 54.890625 33.015625 
L 54.890625 0 
L 45.90625 0 
L 45.90625 32.71875 
Q 45.90625 40.484375 42.875 44.328125 
Q 39.84375 48.1875 33.796875 48.1875 
Q 26.515625 48.1875 22.3125 43.546875 
Q 18.109375 38.921875 18.109375 30.90625 
L 18.109375 0 
L 9.078125 0 
L 9.078125 75.984375 
L 18.109375 75.984375 
L 18.109375 46.1875 
Q 21.34375 51.125 25.703125 53.5625 
Q 30.078125 56 35.796875 56 
Q 45.21875 56 50.046875 50.171875 
Q 54.890625 44.34375 54.890625 33.015625 
z
" id="DejaVuSans-68"/>
      <path d="M 9.421875 54.6875 
L 18.40625 54.6875 
L 18.40625 0 
L 9.421875 0 
z
M 9.421875 75.984375 
L 18.40625 75.984375 
L 18.40625 64.59375 
L 9.421875 64.59375 
z
" id="DejaVuSans-69"/>
      <path d="M 18.3125 70.21875 
L 18.3125 54.6875 
L 36.8125 54.6875 
L 36.8125 47.703125 
L 18.3125 47.703125 
L 18.3125 18.015625 
Q 18.3125 11.328125 20.140625 9.421875 
Q 21.96875 7.515625 27.59375 7.515625 
L 36.8125 7.515625 
L 36.8125 0 
L 27.59375 0 
Q 17.1875 0 13.234375 3.875 
Q 9.28125 7.765625 9.28125 18.015625 
L 9.28125 47.703125 
L 2.6875 47.703125 
L 2.6875 54.6875 
L 9.28125 54.6875 
L 9.28125 70.21875 
z
" id="DejaVuSans-74"/>
      <path d="M 31 75.875 
Q 24.46875 64.65625 21.28125 53.65625 
Q 18.109375 42.671875 18.109375 31.390625 
Q 18.109375 20.125 21.3125 9.0625 
Q 24.515625 -2 31 -13.1875 
L 23.1875 -13.1875 
Q 15.875 -1.703125 12.234375 9.375 
Q 8.59375 20.453125 8.59375 31.390625 
Q 8.59375 42.28125 12.203125 53.3125 
Q 15.828125 64.359375 23.1875 75.875 
z
" id="DejaVuSans-28"/>
      <path d="M 41.609375 79.390625 
Q 41.609375 82.46875 39.421875 84.640625 
Q 37.25 86.8125 34.1875 86.8125 
Q 31.0625 86.8125 28.9375 84.6875 
Q 26.8125 82.5625 26.8125 79.390625 
Q 26.8125 76.3125 28.953125 74.15625 
Q 31.109375 72.015625 34.1875 72.015625 
Q 37.25 72.015625 39.421875 74.15625 
Q 41.609375 76.3125 41.609375 79.390625 
z
M 34.1875 63.1875 
L 20.90625 26.90625 
L 47.515625 26.90625 
z
M 26.8125 68.21875 
Q 23.828125 70.21875 22.3125 73.015625 
Q 20.796875 75.828125 20.796875 79.390625 
Q 20.796875 85.015625 24.671875 88.921875 
Q 28.5625 92.828125 34.1875 92.828125 
Q 39.75 92.828125 43.671875 88.890625 
Q 47.609375 84.96875 47.609375 79.390625 
Q 47.609375 75.984375 46.0625 73.09375 
Q 44.53125 70.21875 41.609375 68.21875 
L 67.578125 0 
L 57.328125 0 
L 50.6875 18.703125 
L 17.828125 18.703125 
L 11.1875 0 
L 0.78125 0 
z
" id="DejaVuSans-c5"/>
      <path d="M 8.015625 75.875 
L 15.828125 75.875 
Q 23.140625 64.359375 26.78125 53.3125 
Q 30.421875 42.28125 30.421875 31.390625 
Q 30.421875 20.453125 26.78125 9.375 
Q 23.140625 -1.703125 15.828125 -13.1875 
L 8.015625 -13.1875 
Q 14.5 -2 17.703125 9.0625 
Q 20.90625 20.125 20.90625 31.390625 
Q 20.90625 42.671875 17.703125 53.65625 
Q 14.5 64.65625 8.015625 75.875 
z
" id="DejaVuSans-29"/>
     </defs>
     <g transform="translate(165.2425 328.249375)scale(0.14 -0.14)">
      <use transform="translate(0 0.171875)" xlink:href="#DejaVuSans-53"/>
      <use transform="translate(63.476562 0.171875)" xlink:href="#DejaVuSans-75"/>
      <use transform="translate(126.855469 0.171875)" xlink:href="#DejaVuSans-72"/>
      <use transform="translate(167.96875 0.171875)" xlink:href="#DejaVuSans-66"/>
      <use transform="translate(203.173828 0.171875)" xlink:href="#DejaVuSans-61"/>
      <use transform="translate(264.453125 0.171875)" xlink:href="#DejaVuSans-63"/>
      <use transform="translate(319.433594 0.171875)" xlink:href="#DejaVuSans-65"/>
      <use transform="translate(380.957031 0.171875)" xlink:href="#DejaVuSans-20"/>
      <use transform="translate(412.744141 0.171875)" xlink:href="#DejaVuSans-6c"/>
      <use transform="translate(440.527344 0.171875)" xlink:href="#DejaVuSans-61"/>
      <use transform="translate(501.806641 0.171875)" xlink:href="#DejaVuSans-79"/>
      <use transform="translate(560.986328 0.171875)" xlink:href="#DejaVuSans-65"/>
      <use transform="translate(622.509766 0.171875)" xlink:href="#DejaVuSans-72"/>
      <use transform="translate(663.623047 0.171875)" xlink:href="#DejaVuSans-20"/>
      <use transform="translate(695.410156 0.171875)" xlink:href="#DejaVuSans-73"/>
      <use transform="translate(747.509766 0.171875)" xlink:href="#DejaVuSans-68"/>
      <use transform="translate(810.888672 0.171875)" xlink:href="#DejaVuSans-69"/>
      <use transform="translate(838.671875 0.171875)" xlink:href="#DejaVuSans-66"/>
      <use transform="translate(873.876953 0.171875)" xlink:href="#DejaVuSans-74"/>
      <use transform="translate(913.085938 0.171875)" xlink:href="#DejaVuSans-20"/>
      <use transform="translate(944.873047 0.171875)" xlink:href="#DejaVuSans-28"/>
      <use transform="translate(983.886719 0.171875)" xlink:href="#DejaVuSans-c5"/>
      <use transform="translate(1052.294922 0.171875)" xlink:href="#DejaVuSans-29"/>
     </g>
    </g>
   </g>
   <g id="matplotlib.axis_2">
    <g id="ytick_1">
     <g id="line2d_10">
      <defs>
       <path d="M 0 0 
L -3.5 0 
" id="m1f57f7eced" style="stroke:#000000;stroke-width:0.8;"/>
      </defs>
      <g>
       <use style="stroke:#000000;stroke-width:0.8;" x="44.48" xlink:href="#m1f57f7eced" y="290.68"/>
      </g>
     </g>
     <g id="text_11">
      <!-- 0 -->
      <g transform="translate(28.5725 295.998906)scale(0.14 -0.14)">
       <use xlink:href="#DejaVuSans-30"/>
      </g>
     </g>
    </g>
    <g id="ytick_2">
     <g id="line2d_11">
      <g>
       <use style="stroke:#000000;stroke-width:0.8;" x="44.48" xlink:href="#m1f57f7eced" y="257.423185"/>
      </g>
     </g>
     <g id="text_12">
      <!-- 1 -->
      <g transform="translate(28.5725 262.742091)scale(0.14 -0.14)">
       <use xlink:href="#DejaVuSans-31"/>
      </g>
     </g>
    </g>
    <g id="ytick_3">
     <g id="line2d_12">
      <g>
       <use style="stroke:#000000;stroke-width:0.8;" x="44.48" xlink:href="#m1f57f7eced" y="224.166369"/>
      </g>
     </g>
     <g id="text_13">
      <!-- 2 -->
      <g transform="translate(28.5725 229.485276)scale(0.14 -0.14)">
       <use xlink:href="#DejaVuSans-32"/>
      </g>
     </g>
    </g>
    <g id="ytick_4">
     <g id="line2d_13">
      <g>
       <use style="stroke:#000000;stroke-width:0.8;" x="44.48" xlink:href="#m1f57f7eced" y="190.909554"/>
      </g>
     </g>
     <g id="text_14">
      <!-- 3 -->
      <g transform="translate(28.5725 196.22846)scale(0.14 -0.14)">
       <use xlink:href="#DejaVuSans-33"/>
      </g>
     </g>
    </g>
    <g id="ytick_5">
     <g id="line2d_14">
      <g>
       <use style="stroke:#000000;stroke-width:0.8;" x="44.48" xlink:href="#m1f57f7eced" y="157.652739"/>
      </g>
     </g>
     <g id="text_15">
      <!-- 4 -->
      <g transform="translate(28.5725 162.971645)scale(0.14 -0.14)">
       <use xlink:href="#DejaVuSans-34"/>
      </g>
     </g>
    </g>
    <g id="ytick_6">
     <g id="line2d_15">
      <g>
       <use style="stroke:#000000;stroke-width:0.8;" x="44.48" xlink:href="#m1f57f7eced" y="124.395923"/>
      </g>
     </g>
     <g id="text_16">
      <!-- 5 -->
      <defs>
       <path d="M 10.796875 72.90625 
L 49.515625 72.90625 
L 49.515625 64.59375 
L 19.828125 64.59375 
L 19.828125 46.734375 
Q 21.96875 47.46875 24.109375 47.828125 
Q 26.265625 48.1875 28.421875 48.1875 
Q 40.625 48.1875 47.75 41.5 
Q 54.890625 34.8125 54.890625 23.390625 
Q 54.890625 11.625 47.5625 5.09375 
Q 40.234375 -1.421875 26.90625 -1.421875 
Q 22.3125 -1.421875 17.546875 -0.640625 
Q 12.796875 0.140625 7.71875 1.703125 
L 7.71875 11.625 
Q 12.109375 9.234375 16.796875 8.0625 
Q 21.484375 6.890625 26.703125 6.890625 
Q 35.15625 6.890625 40.078125 11.328125 
Q 45.015625 15.765625 45.015625 23.390625 
Q 45.015625 31 40.078125 35.4375 
Q 35.15625 39.890625 26.703125 39.890625 
Q 22.75 39.890625 18.8125 39.015625 
Q 14.890625 38.140625 10.796875 36.28125 
z
" id="DejaVuSans-35"/>
      </defs>
      <g transform="translate(28.5725 129.71483)scale(0.14 -0.14)">
       <use xlink:href="#DejaVuSans-35"/>
      </g>
     </g>
    </g>
    <g id="ytick_7">
     <g id="line2d_16">
      <g>
       <use style="stroke:#000000;stroke-width:0.8;" x="44.48" xlink:href="#m1f57f7eced" y="91.139108"/>
      </g>
     </g>
     <g id="text_17">
      <!-- 6 -->
      <defs>
       <path d="M 33.015625 40.375 
Q 26.375 40.375 22.484375 35.828125 
Q 18.609375 31.296875 18.609375 23.390625 
Q 18.609375 15.53125 22.484375 10.953125 
Q 26.375 6.390625 33.015625 6.390625 
Q 39.65625 6.390625 43.53125 10.953125 
Q 47.40625 15.53125 47.40625 23.390625 
Q 47.40625 31.296875 43.53125 35.828125 
Q 39.65625 40.375 33.015625 40.375 
z
M 52.59375 71.296875 
L 52.59375 62.3125 
Q 48.875 64.0625 45.09375 64.984375 
Q 41.3125 65.921875 37.59375 65.921875 
Q 27.828125 65.921875 22.671875 59.328125 
Q 17.53125 52.734375 16.796875 39.40625 
Q 19.671875 43.65625 24.015625 45.921875 
Q 28.375 48.1875 33.59375 48.1875 
Q 44.578125 48.1875 50.953125 41.515625 
Q 57.328125 34.859375 57.328125 23.390625 
Q 57.328125 12.15625 50.6875 5.359375 
Q 44.046875 -1.421875 33.015625 -1.421875 
Q 20.359375 -1.421875 13.671875 8.265625 
Q 6.984375 17.96875 6.984375 36.375 
Q 6.984375 53.65625 15.1875 63.9375 
Q 23.390625 74.21875 37.203125 74.21875 
Q 40.921875 74.21875 44.703125 73.484375 
Q 48.484375 72.75 52.59375 71.296875 
z
" id="DejaVuSans-36"/>
      </defs>
      <g transform="translate(28.5725 96.458014)scale(0.14 -0.14)">
       <use xlink:href="#DejaVuSans-36"/>
      </g>
     </g>
    </g>
    <g id="ytick_8">
     <g id="line2d_17">
      <g>
       <use style="stroke:#000000;stroke-width:0.8;" x="44.48" xlink:href="#m1f57f7eced" y="57.882293"/>
      </g>
     </g>
     <g id="text_18">
      <!-- 7 -->
      <defs>
       <path d="M 8.203125 72.90625 
L 55.078125 72.90625 
L 55.078125 68.703125 
L 28.609375 0 
L 18.3125 0 
L 43.21875 64.59375 
L 8.203125 64.59375 
z
" id="DejaVuSans-37"/>
      </defs>
      <g transform="translate(28.5725 63.201199)scale(0.14 -0.14)">
       <use xlink:href="#DejaVuSans-37"/>
      </g>
     </g>
    </g>
    <g id="ytick_9">
     <g id="line2d_18">
      <g>
       <use style="stroke:#000000;stroke-width:0.8;" x="44.48" xlink:href="#m1f57f7eced" y="24.625478"/>
      </g>
     </g>
     <g id="text_19">
      <!-- 8 -->
      <defs>
       <path d="M 31.78125 34.625 
Q 24.75 34.625 20.71875 30.859375 
Q 16.703125 27.09375 16.703125 20.515625 
Q 16.703125 13.921875 20.71875 10.15625 
Q 24.75 6.390625 31.78125 6.390625 
Q 38.8125 6.390625 42.859375 10.171875 
Q 46.921875 13.96875 46.921875 20.515625 
Q 46.921875 27.09375 42.890625 30.859375 
Q 38.875 34.625 31.78125 34.625 
z
M 21.921875 38.8125 
Q 15.578125 40.375 12.03125 44.71875 
Q 8.5 49.078125 8.5 55.328125 
Q 8.5 64.0625 14.71875 69.140625 
Q 20.953125 74.21875 31.78125 74.21875 
Q 42.671875 74.21875 48.875 69.140625 
Q 55.078125 64.0625 55.078125 55.328125 
Q 55.078125 49.078125 51.53125 44.71875 
Q 48 40.375 41.703125 38.8125 
Q 48.828125 37.15625 52.796875 32.3125 
Q 56.78125 27.484375 56.78125 20.515625 
Q 56.78125 9.90625 50.3125 4.234375 
Q 43.84375 -1.421875 31.78125 -1.421875 
Q 19.734375 -1.421875 13.25 4.234375 
Q 6.78125 9.90625 6.78125 20.515625 
Q 6.78125 27.484375 10.78125 32.3125 
Q 14.796875 37.15625 21.921875 38.8125 
z
M 18.3125 54.390625 
Q 18.3125 48.734375 21.84375 45.5625 
Q 25.390625 42.390625 31.78125 42.390625 
Q 38.140625 42.390625 41.71875 45.5625 
Q 45.3125 48.734375 45.3125 54.390625 
Q 45.3125 60.0625 41.71875 63.234375 
Q 38.140625 66.40625 31.78125 66.40625 
Q 25.390625 66.40625 21.84375 63.234375 
Q 18.3125 60.0625 18.3125 54.390625 
z
" id="DejaVuSans-38"/>
      </defs>
      <g transform="translate(28.5725 29.944384)scale(0.14 -0.14)">
       <use xlink:href="#DejaVuSans-38"/>
      </g>
     </g>
    </g>
    <g id="text_20">
     <!-- Potential Energy (eV) -->
     <defs>
      <path d="M 19.671875 64.796875 
L 19.671875 37.40625 
L 32.078125 37.40625 
Q 38.96875 37.40625 42.71875 40.96875 
Q 46.484375 44.53125 46.484375 51.125 
Q 46.484375 57.671875 42.71875 61.234375 
Q 38.96875 64.796875 32.078125 64.796875 
z
M 9.8125 72.90625 
L 32.078125 72.90625 
Q 44.34375 72.90625 50.609375 67.359375 
Q 56.890625 61.8125 56.890625 51.125 
Q 56.890625 40.328125 50.609375 34.8125 
Q 44.34375 29.296875 32.078125 29.296875 
L 19.671875 29.296875 
L 19.671875 0 
L 9.8125 0 
z
" id="DejaVuSans-50"/>
      <path d="M 30.609375 48.390625 
Q 23.390625 48.390625 19.1875 42.75 
Q 14.984375 37.109375 14.984375 27.296875 
Q 14.984375 17.484375 19.15625 11.84375 
Q 23.34375 6.203125 30.609375 6.203125 
Q 37.796875 6.203125 41.984375 11.859375 
Q 46.1875 17.53125 46.1875 27.296875 
Q 46.1875 37.015625 41.984375 42.703125 
Q 37.796875 48.390625 30.609375 48.390625 
z
M 30.609375 56 
Q 42.328125 56 49.015625 48.375 
Q 55.71875 40.765625 55.71875 27.296875 
Q 55.71875 13.875 49.015625 6.21875 
Q 42.328125 -1.421875 30.609375 -1.421875 
Q 18.84375 -1.421875 12.171875 6.21875 
Q 5.515625 13.875 5.515625 27.296875 
Q 5.515625 40.765625 12.171875 48.375 
Q 18.84375 56 30.609375 56 
z
" id="DejaVuSans-6f"/>
      <path d="M 54.890625 33.015625 
L 54.890625 0 
L 45.90625 0 
L 45.90625 32.71875 
Q 45.90625 40.484375 42.875 44.328125 
Q 39.84375 48.1875 33.796875 48.1875 
Q 26.515625 48.1875 22.3125 43.546875 
Q 18.109375 38.921875 18.109375 30.90625 
L 18.109375 0 
L 9.078125 0 
L 9.078125 54.6875 
L 18.109375 54.6875 
L 18.109375 46.1875 
Q 21.34375 51.125 25.703125 53.5625 
Q 30.078125 56 35.796875 56 
Q 45.21875 56 50.046875 50.171875 
Q 54.890625 44.34375 54.890625 33.015625 
z
" id="DejaVuSans-6e"/>
      <path d="M 9.8125 72.90625 
L 55.90625 72.90625 
L 55.90625 64.59375 
L 19.671875 64.59375 
L 19.671875 43.015625 
L 54.390625 43.015625 
L 54.390625 34.71875 
L 19.671875 34.71875 
L 19.671875 8.296875 
L 56.78125 8.296875 
L 56.78125 0 
L 9.8125 0 
z
" id="DejaVuSans-45"/>
      <path d="M 45.40625 27.984375 
Q 45.40625 37.75 41.375 43.109375 
Q 37.359375 48.484375 30.078125 48.484375 
Q 22.859375 48.484375 18.828125 43.109375 
Q 14.796875 37.75 14.796875 27.984375 
Q 14.796875 18.265625 18.828125 12.890625 
Q 22.859375 7.515625 30.078125 7.515625 
Q 37.359375 7.515625 41.375 12.890625 
Q 45.40625 18.265625 45.40625 27.984375 
z
M 54.390625 6.78125 
Q 54.390625 -7.171875 48.1875 -13.984375 
Q 42 -20.796875 29.203125 -20.796875 
Q 24.46875 -20.796875 20.265625 -20.09375 
Q 16.0625 -19.390625 12.109375 -17.921875 
L 12.109375 -9.1875 
Q 16.0625 -11.328125 19.921875 -12.34375 
Q 23.78125 -13.375 27.78125 -13.375 
Q 36.625 -13.375 41.015625 -8.765625 
Q 45.40625 -4.15625 45.40625 5.171875 
L 45.40625 9.625 
Q 42.625 4.78125 38.28125 2.390625 
Q 33.9375 0 27.875 0 
Q 17.828125 0 11.671875 7.65625 
Q 5.515625 15.328125 5.515625 27.984375 
Q 5.515625 40.671875 11.671875 48.328125 
Q 17.828125 56 27.875 56 
Q 33.9375 56 38.28125 53.609375 
Q 42.625 51.21875 45.40625 46.390625 
L 45.40625 54.6875 
L 54.390625 54.6875 
z
" id="DejaVuSans-67"/>
      <path d="M 28.609375 0 
L 0.78125 72.90625 
L 11.078125 72.90625 
L 34.1875 11.53125 
L 57.328125 72.90625 
L 67.578125 72.90625 
L 39.796875 0 
z
" id="DejaVuSans-56"/>
     </defs>
     <g transform="translate(21.660938 226.548906)rotate(-90)scale(0.14 -0.14)">
      <use xlink:href="#DejaVuSans-50"/>
      <use x="60.255859" xlink:href="#DejaVuSans-6f"/>
      <use x="121.4375" xlink:href="#DejaVuSans-74"/>
      <use x="160.646484" xlink:href="#DejaVuSans-65"/>
      <use x="222.169922" xlink:href="#DejaVuSans-6e"/>
      <use x="285.548828" xlink:href="#DejaVuSans-74"/>
      <use x="324.757812" xlink:href="#DejaVuSans-69"/>
      <use x="352.541016" xlink:href="#DejaVuSans-61"/>
      <use x="413.820312" xlink:href="#DejaVuSans-6c"/>
      <use x="441.603516" xlink:href="#DejaVuSans-20"/>
      <use x="473.390625" xlink:href="#DejaVuSans-45"/>
      <use x="536.574219" xlink:href="#DejaVuSans-6e"/>
      <use x="599.953125" xlink:href="#DejaVuSans-65"/>
      <use x="661.476562" xlink:href="#DejaVuSans-72"/>
      <use x="702.574219" xlink:href="#DejaVuSans-67"/>
      <use x="766.050781" xlink:href="#DejaVuSans-79"/>
      <use x="825.230469" xlink:href="#DejaVuSans-20"/>
      <use x="857.017578" xlink:href="#DejaVuSans-28"/>
      <use x="896.03125" xlink:href="#DejaVuSans-65"/>
      <use x="957.554688" xlink:href="#DejaVuSans-56"/>
      <use x="1025.962891" xlink:href="#DejaVuSans-29"/>
     </g>
    </g>
   </g>
   <g id="line2d_19">
    <path clip-path="url(#p0db1c10dfe)" d="M 44.48 82.252788 
L 64.20025 125.767489 
L 83.9205 163.470929 
L 103.64075 195.653 
L 123.361 222.603592 
L 143.08125 244.612596 
L 162.8015 261.969905 
L 182.52175 274.965408 
L 202.242 283.888998 
L 221.96225 289.030565 
L 241.6825 290.68 
L 261.40275 289.127195 
L 281.123 284.662041 
L 300.84325 277.574429 
L 320.5635 268.154249 
L 340.28375 256.691395 
L 360.004 243.475755 
L 379.72425 228.797222 
L 399.4445 212.945687 
L 419.16475 196.211041 
L 438.885 178.883175 
" style="fill:none;opacity:0.7;stroke:#1f77b4;stroke-linecap:square;stroke-width:2.2;"/>
   </g>
   <g id="line2d_20">
    <path clip-path="url(#p0db1c10dfe)" d="M 44.48 57.985646 
L 64.20025 106.878653 
L 83.9205 149.152875 
L 103.64075 185.155059 
L 123.361 215.231952 
L 143.08125 239.7303 
L 162.8015 258.99685 
L 182.52175 273.378348 
L 202.242 283.221541 
L 221.96225 288.873176 
L 241.6825 290.68 
L 261.40275 288.988759 
L 281.123 284.146199 
L 300.84325 276.499068 
L 320.5635 266.394111 
L 340.28375 254.178076 
L 360.004 240.19771 
L 379.72425 224.799758 
L 399.4445 208.330968 
L 419.16475 191.138086 
L 438.885 173.567859 
" style="fill:none;opacity:0.7;stroke:#ff7f0e;stroke-linecap:square;stroke-width:2.2;"/>
   </g>
   <g id="line2d_21">
    <path clip-path="url(#p0db1c10dfe)" d="M 44.48 58.985884 
L 64.20025 107.982678 
L 83.9205 150.257354 
L 103.64075 186.178426 
L 123.361 216.114405 
L 143.08125 240.433804 
L 162.8015 259.505133 
L 182.52175 273.696905 
L 202.242 283.377633 
L 221.96225 288.915827 
L 241.6825 290.68 
L 261.40275 289.038664 
L 281.123 284.360331 
L 300.84325 277.013513 
L 320.5635 267.366722 
L 340.28375 255.788469 
L 360.004 242.647267 
L 379.72425 228.311628 
L 399.4445 213.150063 
L 419.16475 197.531085 
L 438.885 181.823206 
" style="fill:none;opacity:0.7;stroke:#2ca02c;stroke-linecap:square;stroke-width:2.2;"/>
   </g>
   <g id="line2d_22">
    <path clip-path="url(#p0db1c10dfe)" d="M 44.48 56.659732 
L 64.20025 106.441529 
L 83.9205 149.310696 
L 103.64075 185.661156 
L 123.361 215.88683 
L 143.08125 240.38164 
L 162.8015 259.539508 
L 182.52175 273.754356 
L 202.242 283.420106 
L 221.96225 288.93068 
L 241.6825 290.68 
L 261.40275 289.061988 
L 281.123 284.470565 
L 300.84325 277.299653 
L 320.5635 267.943175 
L 340.28375 256.795053 
L 360.004 244.249208 
L 379.72425 230.699562 
L 399.4445 216.540037 
L 419.16475 202.164555 
L 438.885 187.967038 
" style="fill:none;opacity:0.7;stroke:#d62728;stroke-linecap:square;stroke-width:2.2;"/>
   </g>
   <g id="line2d_23">
    <path clip-path="url(#p0db1c10dfe)" d="M 44.48 55.756297 
L 64.20025 105.520592 
L 83.9205 148.433587 
L 103.64075 184.875193 
L 123.361 215.225319 
L 143.08125 239.863876 
L 162.8015 259.170775 
L 182.52175 273.525927 
L 202.242 283.309241 
L 221.96225 288.900629 
L 241.6825 290.68 
L 261.40275 289.027266 
L 281.123 284.322336 
L 300.84325 276.945121 
L 320.5635 267.275533 
L 340.28375 255.693481 
L 360.004 242.578875 
L 379.72425 228.311627 
L 399.4445 213.271646 
L 419.16475 197.838844 
L 438.885 182.393131 
" style="fill:none;opacity:0.7;stroke:#9467bd;stroke-linecap:square;stroke-width:2.2;"/>
   </g>
   <g id="line2d_24">
    <path clip-path="url(#p0db1c10dfe)" d="M 44.48 60.837057 
L 64.20025 109.400743 
L 83.9205 151.313498 
L 103.64075 186.937804 
L 123.361 216.636145 
L 143.08125 240.771004 
L 162.8015 259.704865 
L 182.52175 273.800212 
L 202.242 283.419528 
L 221.96225 288.925296 
L 241.6825 290.68 
L 261.40275 289.046124 
L 281.123 284.38615 
L 300.84325 277.062564 
L 320.5635 267.437847 
L 340.28375 255.874484 
L 360.004 242.734958 
L 379.72425 228.381753 
L 399.4445 213.177352 
L 419.16475 197.484239 
L 438.885 181.664897 
" style="fill:none;opacity:0.7;stroke:#8c564b;stroke-linecap:square;stroke-width:2.2;"/>
   </g>
   <g id="line2d_25">
    <path clip-path="url(#p0db1c10dfe)" d="M 44.48 75.382166 
L 64.20025 120.153465 
L 83.9205 158.996584 
L 103.64075 192.197796 
L 123.361 220.043378 
L 143.08125 242.819602 
L 162.8015 260.812745 
L 182.52175 274.309081 
L 202.242 283.594886 
L 221.96225 288.956434 
L 241.6825 290.68 
L 261.40275 289.051859 
L 281.123 284.358286 
L 300.84325 276.885556 
L 320.5635 266.919943 
L 340.28375 254.747723 
L 360.004 240.655171 
L 379.72425 224.928561 
L 399.4445 207.854169 
L 419.16475 189.718269 
L 438.885 170.807136 
" style="fill:none;opacity:0.7;stroke:#e377c2;stroke-linecap:square;stroke-width:2.2;"/>
   </g>
   <g id="line2d_26">
    <path clip-path="url(#p0db1c10dfe)" d="M 44.48 75.067274 
L 64.20025 119.909665 
L 83.9205 158.812849 
L 103.64075 192.063937 
L 123.361 219.950037 
L 143.08125 242.758258 
L 162.8015 260.775709 
L 182.52175 274.2895 
L 202.242 283.586739 
L 221.96225 288.954536 
L 241.6825 290.68 
L 261.40275 289.050239 
L 281.123 284.352364 
L 300.84325 276.873482 
L 320.5635 266.900703 
L 340.28375 254.721136 
L 360.004 240.621891 
L 379.72425 224.890075 
L 399.4445 207.812799 
L 419.16475 189.677172 
L 438.885 170.770302 
" style="fill:none;opacity:0.7;stroke:#7f7f7f;stroke-linecap:square;stroke-width:2.2;"/>
   </g>
   <g id="line2d_27">
    <path clip-path="url(#p0db1c10dfe)" d="M 44.48 50.043351 
L 64.20025 101.39616 
L 83.9205 145.572252 
L 103.64075 182.9888 
L 123.361 214.062978 
L 143.08125 239.211959 
L 162.8015 258.852917 
L 182.52175 273.403027 
L 202.242 283.279461 
L 221.96225 288.899394 
L 241.6825 290.68 
L 261.40275 289.038452 
L 281.123 284.391924 
L 300.84325 277.157591 
L 320.5635 267.752625 
L 340.28375 256.5942 
L 360.004 244.099492 
L 379.72425 230.685672 
L 399.4445 216.769915 
L 419.16475 202.769395 
L 438.885 189.101286 
" style="fill:none;opacity:0.7;stroke:#bcbd22;stroke-linecap:square;stroke-width:2.2;"/>
   </g>
   <g id="line2d_28">
    <path clip-path="url(#p0db1c10dfe)" d="M 44.48 48.132678 
L 64.20025 100.652373 
L 83.9205 145.619714 
L 103.64075 183.511422 
L 123.361 214.804215 
L 143.08125 239.974811 
L 162.8015 259.499929 
L 182.52175 273.856288 
L 202.242 283.520607 
L 221.96225 288.969605 
L 241.6825 290.68 
L 261.40275 289.128511 
L 281.123 284.791857 
L 300.84325 278.146757 
L 320.5635 269.669929 
L 340.28375 259.838093 
L 360.004 249.127966 
L 379.72425 238.016269 
L 399.4445 226.979719 
L 419.16475 216.495035 
L 438.885 207.038936 
" style="fill:none;opacity:0.7;stroke:#17becf;stroke-linecap:square;stroke-width:2.2;"/>
   </g>
   <g id="line2d_29">
    <path clip-path="url(#p0db1c10dfe)" d="M 44.48 65.336155 
L 64.20025 112.827593 
L 83.9205 153.849343 
L 103.64075 188.747785 
L 123.361 217.869295 
L 143.08125 241.560254 
L 162.8015 260.167038 
L 182.52175 274.036026 
L 202.242 283.513597 
L 221.96225 288.946129 
L 241.6825 290.68 
L 261.40275 289.061588 
L 281.123 284.437273 
L 300.84325 277.153431 
L 320.5635 267.556442 
L 340.28375 255.992684 
L 360.004 242.808535 
L 379.72425 228.350373 
L 399.4445 212.964577 
L 419.16475 196.997525 
L 438.885 180.795595 
" style="fill:none;opacity:0.7;stroke:#1f77b4;stroke-linecap:square;stroke-width:2.2;"/>
   </g>
   <g id="line2d_30">
    <path clip-path="url(#p0db1c10dfe)" d="M 44.48 26.527619 
L 64.20025 84.100149 
L 83.9205 133.290352 
L 103.64075 174.64516 
L 123.361 208.711503 
L 143.08125 236.036315 
L 162.8015 257.166526 
L 182.52175 272.649068 
L 202.242 283.030874 
L 221.96225 288.858874 
L 241.6825 290.68 
L 261.40275 289.041184 
L 281.123 284.489358 
L 300.84325 277.571454 
L 320.5635 268.834402 
L 340.28375 258.825136 
L 360.004 248.090585 
L 379.72425 237.177683 
L 399.4445 226.633361 
L 419.16475 217.004551 
L 438.885 208.838183 
" style="fill:none;opacity:0.7;stroke:#ff7f0e;stroke-linecap:square;stroke-width:2.2;"/>
   </g>
   <g id="line2d_31">
    <path clip-path="url(#p0db1c10dfe)" d="M 44.48 43.665149 
L 64.20025 96.777129 
L 83.9205 142.355092 
L 103.64075 180.856751 
L 123.361 212.739824 
L 143.08125 238.462026 
L 162.8015 258.481071 
L 182.52175 273.254676 
L 202.242 283.240555 
L 221.96225 288.896425 
L 241.6825 290.68 
L 261.40275 289.048996 
L 281.123 284.46113 
L 300.84325 277.374115 
L 320.5635 268.245667 
L 340.28375 257.533503 
L 360.004 245.695337 
L 379.72425 233.188884 
L 399.4445 220.471861 
L 419.16475 208.001983 
L 438.885 196.236965 
" style="fill:none;opacity:0.7;stroke:#2ca02c;stroke-linecap:square;stroke-width:2.2;"/>
   </g>
   <g id="line2d_32">
    <path clip-path="url(#p0db1c10dfe)" d="M 44.48 60.145373 
L 64.20025 110.15935 
L 83.9205 152.954962 
L 103.64075 188.992385 
L 123.361 218.731798 
L 143.08125 242.633378 
L 162.8015 261.157302 
L 182.52175 274.763749 
L 202.242 283.912896 
L 221.96225 289.06492 
L 241.6825 290.68 
L 261.40275 289.218313 
L 281.123 285.140036 
L 300.84325 278.905348 
L 320.5635 270.974425 
L 340.28375 261.807447 
L 360.004 251.864589 
L 379.72425 241.606031 
L 399.4445 231.491949 
L 419.16475 221.982521 
L 438.885 213.537925 
" style="fill:none;opacity:0.7;stroke:#d62728;stroke-linecap:square;stroke-width:2.2;"/>
   </g>
   <g id="line2d_33">
    <path clip-path="url(#p0db1c10dfe)" d="M 44.48 55.444809 
L 64.20025 105.575979 
L 83.9205 148.720465 
L 103.64075 185.280968 
L 123.361 215.660192 
L 143.08125 240.260838 
L 162.8015 259.48561 
L 182.52175 273.737209 
L 202.242 283.418339 
L 221.96225 288.931702 
L 241.6825 290.68 
L 261.40275 289.065936 
L 281.123 284.492212 
L 300.84325 277.361532 
L 320.5635 268.076597 
L 340.28375 257.040109 
L 360.004 244.654773 
L 379.72425 231.323289 
L 399.4445 217.448361 
L 419.16475 203.432691 
L 438.885 189.678981 
" style="fill:none;opacity:0.7;stroke:#9467bd;stroke-linecap:square;stroke-width:2.2;"/>
   </g>
   <g id="line2d_34">
    <path clip-path="url(#p0db1c10dfe)" d="M 44.48 51.361661 
L 64.20025 102.507863 
L 83.9205 146.485298 
L 103.64075 183.71439 
L 123.361 214.615563 
L 143.08125 239.609239 
L 162.8015 259.115842 
L 182.52175 273.555797 
L 202.242 283.349525 
L 221.96225 288.917452 
L 241.6825 290.68 
L 261.40275 289.057593 
L 281.123 284.470655 
L 300.84325 277.339608 
L 320.5635 268.084878 
L 340.28375 257.126886 
L 360.004 244.886058 
L 379.72425 231.782815 
L 399.4445 218.237582 
L 419.16475 204.670783 
L 438.885 191.50284 
" style="fill:none;opacity:0.7;stroke:#8c564b;stroke-linecap:square;stroke-width:2.2;"/>
   </g>
   <g id="line2d_35">
    <path clip-path="url(#p0db1c10dfe)" d="M 44.48 28.385294 
L 64.20025 86.828809 
L 83.9205 136.413396 
L 103.64075 177.776649 
L 123.361 211.556164 
L 143.08125 238.389534 
L 162.8015 258.914353 
L 182.52175 273.768214 
L 202.242 283.588714 
L 221.96225 289.013444 
L 241.6825 290.68 
L 261.40275 289.225975 
L 281.123 285.288965 
L 300.84325 279.506561 
L 320.5635 272.51636 
L 340.28375 264.955954 
L 360.004 257.462939 
L 379.72425 250.674907 
L 399.4445 245.229454 
L 419.16475 241.764173 
L 438.885 240.916658 
" style="fill:none;opacity:0.7;stroke:#e377c2;stroke-linecap:square;stroke-width:2.2;"/>
   </g>
   <g id="line2d_36">
    <path clip-path="url(#p0db1c10dfe)" d="M 44.48 41.975798 
L 64.20025 96.048596 
L 83.9205 142.285015 
L 103.64075 181.190164 
L 123.361 213.269154 
L 143.08125 239.027098 
L 162.8015 258.969106 
L 182.52175 273.600289 
L 202.242 283.425758 
L 221.96225 288.950625 
L 241.6825 290.68 
L 261.40275 289.118995 
L 281.123 284.772721 
L 300.84325 278.146289 
L 320.5635 269.74481 
L 340.28375 260.073395 
L 360.004 249.637156 
L 379.72425 238.941203 
L 399.4445 228.490648 
L 419.16475 218.790601 
L 438.885 210.346175 
" style="fill:none;opacity:0.7;stroke:#7f7f7f;stroke-linecap:square;stroke-width:2.2;"/>
   </g>
   <g id="line2d_37">
    <path clip-path="url(#p0db1c10dfe)" d="M 44.48 75.541147 
L 64.20025 120.619357 
L 83.9205 159.631059 
L 103.64075 192.887501 
L 123.361 220.699928 
L 143.08125 243.379588 
L 162.8015 261.237727 
L 182.52175 274.585591 
L 202.242 283.734427 
L 221.96225 288.995481 
L 241.6825 290.68 
L 261.40275 289.09923 
L 281.123 284.564418 
L 300.84325 277.386809 
L 320.5635 267.877652 
L 340.28375 256.348191 
L 360.004 243.109674 
L 379.72425 228.473347 
L 399.4445 212.750456 
L 419.16475 196.252248 
L 438.885 179.28997 
" style="fill:none;opacity:0.7;stroke:#bcbd22;stroke-linecap:square;stroke-width:2.2;"/>
   </g>
   <g id="line2d_38">
    <path clip-path="url(#p0db1c10dfe)" d="M 44.48 52.778743 
L 64.20025 103.066332 
L 83.9205 146.460885 
L 103.64075 183.339168 
L 123.361 214.077948 
L 143.08125 239.053992 
L 162.8015 258.644066 
L 182.52175 273.224937 
L 202.242 283.173372 
L 221.96225 288.866137 
L 241.6825 290.68 
L 261.40275 288.991726 
L 281.123 284.178083 
L 300.84325 276.615837 
L 320.5635 266.681755 
L 340.28375 254.752603 
L 360.004 241.205149 
L 379.72425 226.416158 
L 399.4445 210.762398 
L 419.16475 194.620635 
L 438.885 178.367636 
" style="fill:none;opacity:0.7;stroke:#17becf;stroke-linecap:square;stroke-width:2.2;"/>
   </g>
   <g id="line2d_39">
    <path clip-path="url(#p0db1c10dfe)" d="M 44.48 56.113231 
L 64.20025 106.130725 
L 83.9205 149.16931 
L 103.64075 185.632676 
L 123.361 215.924511 
L 143.08125 240.448505 
L 162.8015 259.608349 
L 182.52175 273.80773 
L 202.242 283.45034 
L 221.96225 288.939867 
L 241.6825 290.68 
L 261.40275 289.07443 
L 281.123 284.526845 
L 300.84325 277.440936 
L 320.5635 268.220391 
L 340.28375 257.268901 
L 360.004 244.990154 
L 379.72425 231.787841 
L 399.4445 218.06565 
L 419.16475 204.227272 
L 438.885 190.676395 
" style="fill:none;stroke:#000000;stroke-linecap:square;stroke-width:3.2;"/>
   </g>
   <g id="patch_3">
    <path d="M 44.48 290.68 
L 44.48 13.32 
" style="fill:none;stroke:#000000;stroke-linecap:square;stroke-linejoin:miter;stroke-width:0.8;"/>
   </g>
   <g id="patch_4">
    <path d="M 438.885 290.68 
L 438.885 13.32 
" style="fill:none;stroke:#000000;stroke-linecap:square;stroke-linejoin:miter;stroke-width:0.8;"/>
   </g>
   <g id="patch_5">
    <path d="M 44.48 290.68 
L 438.885 290.68 
" style="fill:none;stroke:#000000;stroke-linecap:square;stroke-linejoin:miter;stroke-width:0.8;"/>
   </g>
   <g id="patch_6">
    <path d="M 44.48 13.32 
L 438.885 13.32 
" style="fill:none;stroke:#000000;stroke-linecap:square;stroke-linejoin:miter;stroke-width:0.8;"/>
   </g>
   <g id="legend_1">
    <g id="patch_7">
     <path d="M 166.10875 45.069375 
L 317.25625 45.069375 
Q 320.05625 45.069375 320.05625 42.269375 
L 320.05625 23.12 
Q 320.05625 20.32 317.25625 20.32 
L 166.10875 20.32 
Q 163.30875 20.32 163.30875 23.12 
L 163.30875 42.269375 
Q 163.30875 45.069375 166.10875 45.069375 
z
" style="fill:#ffffff;opacity:0.8;stroke:#cccccc;stroke-linejoin:miter;"/>
    </g>
    <g id="line2d_40">
     <path d="M 168.90875 31.657812 
L 196.90875 31.657812 
" style="fill:none;stroke:#000000;stroke-linecap:square;stroke-width:3.2;"/>
    </g>
    <g id="line2d_41"/>
    <g id="text_21">
     <!-- Average model -->
     <defs>
      <path d="M 34.1875 63.1875 
L 20.796875 26.90625 
L 47.609375 26.90625 
z
M 28.609375 72.90625 
L 39.796875 72.90625 
L 67.578125 0 
L 57.328125 0 
L 50.6875 18.703125 
L 17.828125 18.703125 
L 11.1875 0 
L 0.78125 0 
z
" id="DejaVuSans-41"/>
      <path d="M 2.984375 54.6875 
L 12.5 54.6875 
L 29.59375 8.796875 
L 46.6875 54.6875 
L 56.203125 54.6875 
L 35.6875 0 
L 23.484375 0 
z
" id="DejaVuSans-76"/>
      <path d="M 52 44.1875 
Q 55.375 50.25 60.0625 53.125 
Q 64.75 56 71.09375 56 
Q 79.640625 56 84.28125 50.015625 
Q 88.921875 44.046875 88.921875 33.015625 
L 88.921875 0 
L 79.890625 0 
L 79.890625 32.71875 
Q 79.890625 40.578125 77.09375 44.375 
Q 74.3125 48.1875 68.609375 48.1875 
Q 61.625 48.1875 57.5625 43.546875 
Q 53.515625 38.921875 53.515625 30.90625 
L 53.515625 0 
L 44.484375 0 
L 44.484375 32.71875 
Q 44.484375 40.625 41.703125 44.40625 
Q 38.921875 48.1875 33.109375 48.1875 
Q 26.21875 48.1875 22.15625 43.53125 
Q 18.109375 38.875 18.109375 30.90625 
L 18.109375 0 
L 9.078125 0 
L 9.078125 54.6875 
L 18.109375 54.6875 
L 18.109375 46.1875 
Q 21.1875 51.21875 25.484375 53.609375 
Q 29.78125 56 35.6875 56 
Q 41.65625 56 45.828125 52.96875 
Q 50 49.953125 52 44.1875 
z
" id="DejaVuSans-6d"/>
      <path d="M 45.40625 46.390625 
L 45.40625 75.984375 
L 54.390625 75.984375 
L 54.390625 0 
L 45.40625 0 
L 45.40625 8.203125 
Q 42.578125 3.328125 38.25 0.953125 
Q 33.9375 -1.421875 27.875 -1.421875 
Q 17.96875 -1.421875 11.734375 6.484375 
Q 5.515625 14.40625 5.515625 27.296875 
Q 5.515625 40.1875 11.734375 48.09375 
Q 17.96875 56 27.875 56 
Q 33.9375 56 38.25 53.625 
Q 42.578125 51.265625 45.40625 46.390625 
z
M 14.796875 27.296875 
Q 14.796875 17.390625 18.875 11.75 
Q 22.953125 6.109375 30.078125 6.109375 
Q 37.203125 6.109375 41.296875 11.75 
Q 45.40625 17.390625 45.40625 27.296875 
Q 45.40625 37.203125 41.296875 42.84375 
Q 37.203125 48.484375 30.078125 48.484375 
Q 22.953125 48.484375 18.875 42.84375 
Q 14.796875 37.203125 14.796875 27.296875 
z
" id="DejaVuSans-64"/>
     </defs>
     <g transform="translate(208.10875 36.557812)scale(0.14 -0.14)">
      <use xlink:href="#DejaVuSans-41"/>
      <use x="68.330078" xlink:href="#DejaVuSans-76"/>
      <use x="127.509766" xlink:href="#DejaVuSans-65"/>
      <use x="189.033203" xlink:href="#DejaVuSans-72"/>
      <use x="230.146484" xlink:href="#DejaVuSans-61"/>
      <use x="291.425781" xlink:href="#DejaVuSans-67"/>
      <use x="354.902344" xlink:href="#DejaVuSans-65"/>
      <use x="416.425781" xlink:href="#DejaVuSans-20"/>
      <use x="448.212891" xlink:href="#DejaVuSans-6d"/>
      <use x="545.625" xlink:href="#DejaVuSans-6f"/>
      <use x="606.806641" xlink:href="#DejaVuSans-64"/>
      <use x="670.283203" xlink:href="#DejaVuSans-65"/>
      <use x="731.806641" xlink:href="#DejaVuSans-6c"/>
     </g>
    </g>
   </g>
  </g>
 </g>
 <defs>
  <clipPath id="p0db1c10dfe">
   <rect height="277.36" width="394.405" x="44.48" y="13.32"/>
  </clipPath>
 </defs>
</svg>
